<svg xmlns="http://www.w3.org/2000/svg" xmlns:xlink="http://www.w3.org/1999/xlink" width="219.977" height="100.464" viewBox="0 0 219.977 100.464">
  <defs>
    <filter id="Path_13536" x="149" y="3" width="70.977" height="89.595" filterUnits="userSpaceOnUse">
      <feOffset dy="3" input="SourceAlpha"/>
      <feGaussianBlur stdDeviation="3" result="blur"/>
      <feFlood flood-opacity="0.161"/>
      <feComposite operator="in" in2="blur"/>
      <feComposite in="SourceGraphic"/>
    </filter>
    <filter id="Path_13527" x="0" y="21.627" width="62.488" height="64.387" filterUnits="userSpaceOnUse">
      <feOffset dy="3" input="SourceAlpha"/>
      <feGaussianBlur stdDeviation="3" result="blur-2"/>
      <feFlood flood-opacity="0.161"/>
      <feComposite operator="in" in2="blur-2"/>
      <feComposite in="SourceGraphic"/>
    </filter>
    <filter id="Path_13529" x="47.199" y="34.58" width="51.877" height="64.794" filterUnits="userSpaceOnUse">
      <feOffset dy="3" input="SourceAlpha"/>
      <feGaussianBlur stdDeviation="3" result="blur-3"/>
      <feFlood flood-opacity="0.161"/>
      <feComposite operator="in" in2="blur-3"/>
      <feComposite in="SourceGraphic"/>
    </filter>
    <filter id="Path_13530" x="113.389" y="3.045" width="35.09" height="82.969" filterUnits="userSpaceOnUse">
      <feOffset dy="3" input="SourceAlpha"/>
      <feGaussianBlur stdDeviation="3" result="blur-4"/>
      <feFlood flood-opacity="0.161"/>
      <feComposite operator="in" in2="blur-4"/>
      <feComposite in="SourceGraphic"/>
    </filter>
    <filter id="Path_13538" x="72.186" y="36.146" width="52.422" height="64.319" filterUnits="userSpaceOnUse">
      <feOffset dy="3" input="SourceAlpha"/>
      <feGaussianBlur stdDeviation="3" result="blur-5"/>
      <feFlood flood-opacity="0.161"/>
      <feComposite operator="in" in2="blur-5"/>
      <feComposite in="SourceGraphic"/>
    </filter>
  </defs>
  <g id="Group_18190" data-name="Group 18190" transform="translate(19182 1291)">
    <g id="Group_9565" data-name="Group 9565" transform="translate(-19024 -1282)">
      <g transform="matrix(1, 0, 0, 1, -158, -9)" filter="url(#Path_13536)">
        <path id="Path_13536-2" data-name="Path 13536" d="M-2035.567,609.595l1.26-.729s-4.085-10.14-5.375-11.193-8.265-3.782-8.265-3.782l-.019,0v-3.524a20.936,20.936,0,0,0,5.875-14.517h3.517a.987.987,0,0,0,.947-1.5c-.645-1.086-2.009-2.494-4.889-3.526-1.247-4.434-14.276-10.105-16.33,4.14l.212,2.564-.095-.143s-2.073-.979-2.073,1.552c0,2.376,1.562,4.541,2.556,3.3l.056.68a7.057,7.057,0,0,0,3.344,5.435,15.142,15.142,0,0,0,2.023,1.039,11.815,11.815,0,0,1-5.4-1.973l-.5,3.99h-7.386l-13.8,6.547.471,1.274a60.986,60.986,0,0,0-6.854,4.5c-.739,13.577,3.754,34.043,15.18,33.741.8-8.062-4.672-8.985-4.672-8.985l-1.542-17.008,5.549,3.608v6.459l1.968.165,1.969,2.555v-6.62l5.9,3.838v4.941a7.524,7.524,0,0,0-4.051,4.483,9.611,9.611,0,0,0,12.311,0s18.289-3.437,20.229-5.562A43.533,43.533,0,0,0-2035.567,609.595Zm-25.727,10.93-15.275-9.931,15.21-2.833,12.776,7.8Zm13.327-4.584h0Zm-29.422-5.194h0Zm21.736,15.379a10.425,10.425,0,0,0-5.133-.107V621.56l12.833-5.008.153,6.325Z" transform="translate(2244.37 -556.88)" fill="#bc293e"/>
      </g>
    </g>
    <g id="Group_18189" data-name="Group 18189" transform="translate(0 -0.483)">
      <g transform="matrix(1, 0, 0, 1, -19182, -1290.52)" filter="url(#Path_13527)">
        <path id="Path_13527-2" data-name="Path 13527" d="M-2166.706,1534.351l.271.543V1565q0,11.937-11.936,15.463a33.694,33.694,0,0,1-3.8.271h-13.02q-11.937,0-15.463-11.936a33.736,33.736,0,0,1-.271-3.8V1556.6q0-5.017,7.866-9.223l.271.543v18.175q1.221,6.511,6.511,6.511h15.191q6.51-1.221,6.51-6.511v-22.515Q-2174.573,1538.556-2166.706,1534.351Z" transform="translate(2219.92 -1506.72)" fill="#bc293e"/>
      </g>
      <path id="Path_13528" data-name="Path 13528" d="M-2108.682,1633.767h3.8l.543.271q-.882,3.8-6.511,3.8a3.564,3.564,0,0,0-2.984,3.8q.474,3.8,3.256,3.8h3.255q3.052,0,4.34,3.526l-.542.272h-16a.479.479,0,0,1-.542-.543v-2.713c.044-.361.226-.542.542-.542h3.255a10.463,10.463,0,0,1-1.086-3.8Q-2117.363,1634.513-2108.682,1633.767Z" transform="translate(-17040.221 -2882.754)" fill="#bc293e"/>
      <g transform="matrix(1, 0, 0, 1, -19182, -1290.52)" filter="url(#Path_13529)">
        <path id="Path_13529-2" data-name="Path 13529" d="M-1839.524,1660.413h-16.515q-1.968,6.373-8.681,10.919-5.154,2.441-8.138,2.441l-.542-.272q0-6.307,7.324-11.461a12.453,12.453,0,0,0,3.255-8.41V1636.2q0-5.018,7.867-9.223l.271.542v24.753h9.607Z" transform="translate(1929.6 -1586.4)" fill="#bc293e"/>
      </g>
      <g transform="matrix(1, 0, 0, 1, -19182, -1290.52)" filter="url(#Path_13530)">
        <path id="Path_13530-2" data-name="Path 13530" d="M-1388.7,1401.475h3.8l.543.271q-.883,3.8-6.511,3.8a3.564,3.564,0,0,0-2.984,3.8q.473,3.8,3.255,3.8h3.255q3.051,0,4.34,3.527l-.543.271h-16.005a.479.479,0,0,1-.542-.543v-2.712q.067-.543.542-.543h3.256a10.458,10.458,0,0,1-1.085-3.8Q-1397.38,1402.221-1388.7,1401.475Zm1.221,18.582.271.543v45.3a.479.479,0,0,1-.542.542h-7.053a.479.479,0,0,1-.542-.542V1429.28Q-1395.346,1424.262-1387.479,1420.057Z" transform="translate(1522.48 -1392.43)" fill="#bc293e"/>
      </g>
      <path id="Path_13531" data-name="Path 13531" d="M-1656.125,1507.228c-.339.885-.645,1.76-1.011,2.609a.887.887,0,0,0,.31,1.162,11.488,11.488,0,0,1,1.823,2.008,5.521,5.521,0,0,1-.989,6.685,3.649,3.649,0,0,1-.862.544c-1.871.768-4.125.639-3.813-2.547a24.557,24.557,0,0,1,3.258-9.97C-1657.153,1507.278-1656.825,1506.856-1656.125,1507.228Zm-2.245,6.227-.344.085a28.709,28.709,0,0,0-.77,3.013c-.161,1.078.361,1.494,1.429,1.156a14.882,14.882,0,0,0,2.214-1.045c.754-.386.6-.891.066-1.315C-1656.616,1514.688-1657.5,1514.084-1658.37,1513.455Z" transform="translate(-17435.359 -2773.788)" fill="#1a1a1a"/>
      <path id="Path_13532" data-name="Path 13532" d="M-2206.352,1486.074c-.339.885-.644,1.76-1.01,2.609a.887.887,0,0,0,.31,1.162,11.491,11.491,0,0,1,1.823,2.008,5.522,5.522,0,0,1-.988,6.685,3.662,3.662,0,0,1-.862.544c-1.871.768-4.125.639-3.813-2.547a24.549,24.549,0,0,1,3.258-9.97C-2207.381,1486.124-2207.053,1485.7-2206.352,1486.074Zm-2.245,6.227-.344.085a28.609,28.609,0,0,0-.771,3.013c-.161,1.078.362,1.494,1.429,1.155a14.864,14.864,0,0,0,2.215-1.045c.753-.386.6-.891.065-1.315C-2206.844,1493.533-2207.73,1492.929-2208.6,1492.3Z" transform="translate(-16962.078 -2755.592)" fill="#1a1a1a"/>
      <path id="Path_13533" data-name="Path 13533" d="M-1420.241,1336.794c-.278.884-.41,1.579-1.243,1.959-5.58,2.544-11.144,5.126-16.713,7.695-.2.091-.4.178-.753.337.223-.72.37-1.292.585-1.838a.943.943,0,0,1,.484-.424q8.437-3.743,16.885-7.464C-1420.813,1336.978-1420.618,1336.925-1420.241,1336.794Z" transform="translate(-17626.096 -2627.311)" fill="#1a1a1a"/>
      <path id="Path_13534" data-name="Path 13534" d="M-1855.3,1972.881c-.232.737-.342,1.317-1.037,1.633-4.652,2.121-9.29,4.274-13.933,6.416-.164.076-.331.148-.628.281.186-.6.309-1.077.488-1.532a.793.793,0,0,1,.4-.353q7.035-3.12,14.077-6.223C-1855.778,1973.034-1855.614,1972.99-1855.3,1972.881Z" transform="translate(-17254.551 -3234.371)" fill="#1a1a1a"/>
      <g id="Group_9566" data-name="Group 9566" transform="translate(-19100.814 -1248.371)">
        <path id="Path_13537" data-name="Path 13537" d="M-1614.514,1710.068a8.331,8.331,0,0,0-8.321-8.321,8.33,8.33,0,0,0-8.32,8.321,8.329,8.329,0,0,0,8.32,8.32A8.33,8.33,0,0,0-1614.514,1710.068Z" transform="translate(1640.046 -1692.857)" fill="#bc293e"/>
        <g transform="matrix(1, 0, 0, 1, -81.19, -42.15)" filter="url(#Path_13538)">
          <path id="Path_13538-2" data-name="Path 13538" d="M-1677.52,1684.491c1.289-1.679,8.849-12.068,11.393-15.539,3.026-4.127,5.818-8.269,5.818-13.569a17.211,17.211,0,0,0-17.212-17.21h0a17.209,17.209,0,0,0-17.209,17.211c0,5.3,2.791,9.442,5.818,13.569Zm-11.613-29.107a11.626,11.626,0,0,1,11.613-11.613,11.626,11.626,0,0,1,11.614,11.613A11.626,11.626,0,0,1-1677.52,1667,11.626,11.626,0,0,1-1689.133,1655.384Z" transform="translate(1775.92 -1596.03)" fill="#bc293e"/>
        </g>
      </g>
    </g>
  </g>
</svg>
