<svg xmlns="http://www.w3.org/2000/svg" width="89.22" height="79.652" viewBox="0 0 89.22 79.652">
  <g id="Group_17285" data-name="Group 17285" transform="translate(-65.389 -480.805)">
    <g id="Group_17284" data-name="Group 17284" transform="translate(65.389 480.805)">
      <g id="Elements" transform="translate(0 0)">
        <g id="Group_17257" data-name="Group 17257">
          <g id="Group_17218" data-name="Group 17218" transform="translate(3.078 42.195)">
            <rect id="Rectangle_4885" data-name="Rectangle 4885" width="0.851" height="26.55" fill="#1b1b1b"/>
          </g>
          <g id="Group_17219" data-name="Group 17219" transform="translate(19.227 42.195)">
            <rect id="Rectangle_4886" data-name="Rectangle 4886" width="0.851" height="9.667" fill="#1b1b1b"/>
          </g>
          <g id="Group_17220" data-name="Group 17220" transform="translate(5.647 45.073)">
            <path id="Path_33721" data-name="Path 33721" d="M229.076,480.326H218.433a.426.426,0,0,1-.426-.426v-2.569a.426.426,0,0,1,.426-.426h10.643a.426.426,0,0,1,.426.426V479.9A.426.426,0,0,1,229.076,480.326Zm-10.218-.851h9.792v-1.718h-9.792Z" transform="translate(-218.007 -476.905)" fill="#1b1b1b"/>
          </g>
          <g id="Group_17221" data-name="Group 17221" transform="translate(5.647 49.844)">
            <path id="Path_33722" data-name="Path 33722" d="M229.076,502.74H218.433a.426.426,0,0,1-.426-.426v-2.569a.426.426,0,0,1,.426-.426h10.643a.426.426,0,0,1,.426.426v2.569A.426.426,0,0,1,229.076,502.74Zm-10.218-.852h9.792V500.17h-9.792Z" transform="translate(-218.007 -499.319)" fill="#1b1b1b"/>
          </g>
          <g id="Group_17222" data-name="Group 17222" transform="translate(5.647 54.982)">
            <path id="Path_33723" data-name="Path 33723" d="M225.334,526.877h-6.9a.426.426,0,0,1-.426-.426v-2.569a.426.426,0,0,1,.426-.426h8.361v.851h-7.936v1.718h6.476Z" transform="translate(-218.007 -523.457)" fill="#1b1b1b"/>
          </g>
          <g id="Group_17223" data-name="Group 17223" transform="translate(3.078 38.216)">
            <path id="Path_33724" data-name="Path 33724" d="M215.751,449.1h-9.387a.426.426,0,0,1-.426-.426v-1.529a.426.426,0,0,1,.3-.407l6.709-2.043.248.814-6.407,1.951v.788h8.961Z" transform="translate(-205.939 -444.697)" fill="#1b1b1b"/>
          </g>
          <g id="Group_17224" data-name="Group 17224" transform="translate(15.019 39.405)">
            <path id="Path_33725" data-name="Path 33725" d="M266.664,453.5H262.03v-.851h4.208v-.788l-2.5-.762.248-.814,2.8.854a.426.426,0,0,1,.3.407v1.529A.426.426,0,0,1,266.664,453.5Z" transform="translate(-262.03 -450.281)" fill="#1b1b1b"/>
          </g>
          <g id="Group_17237" data-name="Group 17237" transform="translate(16.59)">
            <g id="Group_17226" data-name="Group 17226" transform="translate(11.706 9.148)">
              <g id="Group_17225" data-name="Group 17225">
                <path id="Path_33726" data-name="Path 33726" d="M335.957,308.723a13.662,13.662,0,0,1,2.622.255,12.969,12.969,0,0,0-13.761,5.545A13.582,13.582,0,0,1,335.957,308.723Z" transform="translate(-324.729 -308.542)" fill="#1b1b1b"/>
                <path id="Path_33727" data-name="Path 33727" d="M324.576,314.19l-.176-.12a13.075,13.075,0,0,1,13.874-5.59l-.044.208a13.493,13.493,0,0,0-13.654,5.5Z" transform="translate(-324.4 -308.148)" fill="#1b1b1b"/>
              </g>
            </g>
            <g id="Group_17227" data-name="Group 17227" transform="translate(4.634 4.828)">
              <path id="Path_33728" data-name="Path 33728" d="M303.024,323.234a18.276,18.276,0,1,1,24.7-17.11h-.852a17.422,17.422,0,1,0-23.551,16.313Z" transform="translate(-291.179 -287.85)" fill="#1b1b1b"/>
            </g>
            <g id="Group_17228" data-name="Group 17228" transform="translate(31.083 30.735)">
              <path id="Path_33729" data-name="Path 33729" d="M415.824,418.059l-.4-.752a17.6,17.6,0,0,0,7.49-7.755l.765.374A18.46,18.46,0,0,1,415.824,418.059Z" transform="translate(-415.424 -409.552)" fill="#1b1b1b"/>
            </g>
            <g id="Group_17229" data-name="Group 17229" transform="translate(8.775 10.203)">
              <path id="Path_33730" data-name="Path 33730" d="M324.679,339.857a14.628,14.628,0,0,1-1.625-.091,14.027,14.027,0,0,1-4.292-26.666l.359.772a13.171,13.171,0,1,0,18.711,11.956v-.7h.852v.7A14.049,14.049,0,0,1,334,336.282,13.858,13.858,0,0,1,324.679,339.857Z" transform="translate(-310.629 -313.1)" fill="#1b1b1b"/>
            </g>
            <g id="Group_17230" data-name="Group 17230" transform="translate(16.906 8.918)">
              <path id="Path_33731" data-name="Path 33731" d="M367.439,317.163c-.122-.391-.265-.783-.424-1.162l.785-.329c.169.4.321.821.451,1.237Zm-.955-2.279c-.194-.362-.407-.719-.634-1.062l.71-.47c.241.365.469.745.675,1.131Zm-1.365-2.061c-.257-.32-.533-.631-.82-.926l.611-.593c.3.314.6.645.873.985Zm-1.723-1.772c-.312-.266-.641-.522-.977-.758l.49-.7c.358.251.708.523,1.04.807Zm-2.02-1.422c-.357-.2-.727-.393-1.1-.563l.352-.775c.4.18.792.382,1.171.6Zm-12.189-.51-.359-.772q.141-.066.284-.128l.339.781C349.363,309.04,349.275,309.08,349.187,309.12Zm9.94-.509c-.388-.133-.787-.25-1.187-.346l.2-.828c.426.1.852.227,1.264.369Zm-8.519-.045-.262-.81c.411-.133.838-.249,1.27-.346l.186.831C351.4,308.332,350.995,308.441,350.608,308.566Zm6.118-.534c-.406-.058-.82-.1-1.231-.117l.041-.851c.438.021.878.063,1.31.125Zm-3.7-.009-.113-.844c.433-.058.874-.1,1.31-.116l.037.851C353.847,307.932,353.432,307.969,353.024,308.023Z" transform="translate(-348.828 -307.063)" fill="#1b1b1b"/>
            </g>
            <g id="Group_17231" data-name="Group 17231" transform="translate(33.525 21.636)">
              <path id="Path_33732" data-name="Path 33732" d="M427.5,370.135l-.6-.6,2.6-2.6a.426.426,0,0,1,.6,0l2.254,2.254-.6.6-1.953-1.953Z" transform="translate(-426.898 -366.81)" fill="#1b1b1b"/>
            </g>
            <g id="Group_17232" data-name="Group 17232" transform="translate(14.201 22.24)">
              <rect id="Rectangle_4887" data-name="Rectangle 4887" width="7.4" height="0.851" fill="#1b1b1b"/>
            </g>
            <g id="Group_17233" data-name="Group 17233" transform="translate(24.094 23.564)">
              <rect id="Rectangle_4888" data-name="Rectangle 4888" width="0.852" height="4.835" transform="translate(0 0.723) rotate(-58.11)" fill="#1b1b1b"/>
            </g>
            <g id="Group_17234" data-name="Group 17234" transform="translate(22.482 14.395)">
              <rect id="Rectangle_4889" data-name="Rectangle 4889" width="0.851" height="6.965" fill="#1b1b1b"/>
            </g>
            <g id="Group_17235" data-name="Group 17235" transform="translate(20.934 20.931)">
              <circle id="Ellipse_1153" data-name="Ellipse 1153" cx="2" cy="2" r="2" fill="#1b1b1b"/>
            </g>
            <g id="Group_17236" data-name="Group 17236">
              <path id="Path_33733" data-name="Path 33733" d="M270.262,288.1h-.852c0-.43.012-.868.036-1.3l.85.047C270.273,287.267,270.262,287.688,270.262,288.1Zm.14-2.5-.846-.1c.049-.43.11-.864.182-1.288l.839.144C270.507,284.771,270.448,285.188,270.4,285.6Zm43.814-.593c-.051-.413-.113-.83-.187-1.239l.838-.151c.077.424.142.857.195,1.286Zm-43.393-1.875-.83-.191c.1-.421.207-.845.328-1.259l.817.238C271.022,282.321,270.916,282.729,270.823,283.134Zm42.948-.589c-.1-.4-.208-.811-.329-1.208l.815-.247c.125.413.24.835.341,1.255Zm-42.248-1.815-.8-.284c.144-.407.3-.816.47-1.216l.785.33C271.813,279.945,271.661,280.339,271.522,280.73Zm41.521-.58c-.144-.39-.3-.781-.467-1.161l.78-.341c.173.4.336.8.486,1.207Zm-40.55-1.733-.765-.374c.19-.389.394-.777.605-1.154l.743.417C272.872,277.67,272.676,278.044,272.493,278.418Zm39.549-.558c-.188-.369-.39-.738-.6-1.1l.735-.43c.219.373.428.757.623,1.141Zm-38.322-1.627-.718-.458c.232-.363.477-.725.731-1.077l.691.5C274.18,275.534,273.943,275.883,273.72,276.232Zm37.059-.529c-.229-.343-.473-.686-.724-1.02l.68-.513c.262.347.515.7.753,1.061Zm-35.593-1.5-.661-.536c.272-.336.558-.668.848-.987l.63.573C275.724,273.556,275.449,273.876,275.186,274.2Zm34.085-.493c-.269-.315-.551-.628-.839-.929l.615-.589c.3.313.593.637.873.966Zm-32.4-1.361-.6-.608c.307-.3.627-.6.953-.885l.562.64C277.476,271.77,277.167,272.057,276.872,272.347Zm30.669-.447c-.3-.283-.621-.561-.942-.826l.543-.656c.333.275.663.564.979.858Zm-28.786-1.2-.524-.671c.342-.267.694-.527,1.047-.772l.486.7C279.423,270.189,279.084,270.439,278.754,270.7Zm26.856-.392c-.335-.246-.682-.486-1.031-.712l.464-.714c.362.235.723.484,1.072.74Zm-24.8-1.036-.445-.726c.366-.225.745-.443,1.126-.648l.4.75C281.528,268.842,281.163,269.052,280.81,269.268Zm22.7-.328c-.361-.206-.733-.4-1.107-.59l.379-.762c.388.193.775.4,1.15.612Zm-20.5-.858-.36-.772c.391-.182.792-.356,1.192-.515l.316.791C283.774,267.74,283.388,267.907,283.012,268.083Zm18.25-.258c-.384-.164-.777-.319-1.168-.46l.29-.8c.406.147.814.308,1.212.478Zm-15.927-.67-.27-.807c.409-.137.828-.264,1.245-.377l.223.821C286.133,266.9,285.729,267.024,285.335,267.155Zm13.57-.183c-.4-.12-.807-.229-1.21-.326l.2-.828c.418.1.841.214,1.256.338Zm-11.154-.474-.176-.833c.424-.09.854-.168,1.28-.233l.128.842C288.573,266.337,288.159,266.412,287.751,266.5Zm8.717-.11c-.408-.074-.824-.138-1.239-.19l.106-.845c.43.054.862.12,1.285.2Zm-6.242-.268-.081-.848c.431-.041.868-.07,1.3-.086l.032.851C291.061,266.053,290.641,266.081,290.226,266.121Zm3.756-.043c-.415-.029-.836-.047-1.253-.054l.014-.852c.432.007.868.026,1.3.056Z" transform="translate(-269.41 -265.172)" fill="#1b1b1b"/>
            </g>
          </g>
          <g id="Group_17241" data-name="Group 17241" transform="translate(6.901 24.709)">
            <g id="Group_17238" data-name="Group 17238">
              <path id="Path_33734" data-name="Path 33734" d="M230.936,400.259a.425.425,0,0,1-.318-.142c-.274-.307-6.72-7.581-6.72-11.832a7.038,7.038,0,0,1,14.076,0c0,4.245-6.446,11.525-6.72,11.832A.426.426,0,0,1,230.936,400.259Zm0-18.161a5.984,5.984,0,0,0-6.187,6.186c0,3.421,4.88,9.368,6.186,10.9,1.306-1.532,6.187-7.485,6.187-10.9A5.983,5.983,0,0,0,230.936,382.1Z" transform="translate(-223.898 -381.246)" fill="#1b1b1b"/>
            </g>
            <g id="Group_17239" data-name="Group 17239" transform="translate(4.144 4.232)">
              <path id="Path_33735" data-name="Path 33735" d="M246.258,406.913a2.894,2.894,0,1,1,2.894-2.894A2.9,2.9,0,0,1,246.258,406.913Zm0-4.937a2.043,2.043,0,1,0,2.043,2.043A2.045,2.045,0,0,0,246.258,401.977Z" transform="translate(-243.364 -401.125)" fill="#1b1b1b"/>
            </g>
            <g id="Group_17240" data-name="Group 17240">
              <path id="Path_33736" data-name="Path 33736" d="M230.936,400.259a.425.425,0,0,1-.318-.142c-.274-.307-6.72-7.581-6.72-11.832a7.038,7.038,0,0,1,14.076,0c0,4.245-6.446,11.525-6.72,11.832A.426.426,0,0,1,230.936,400.259Zm0-18.161a5.984,5.984,0,0,0-6.187,6.186c0,3.421,4.88,9.368,6.186,10.9,1.306-1.532,6.187-7.485,6.187-10.9A5.983,5.983,0,0,0,230.936,382.1Z" transform="translate(-223.898 -381.246)" fill="#1b1b1b"/>
            </g>
          </g>
          <g id="Group_17249" data-name="Group 17249" transform="translate(53.12 20.35)">
            <g id="Group_17242" data-name="Group 17242" transform="translate(16.664)">
              <path id="Path_33737" data-name="Path 33737" d="M526.511,366.557h-.852V361.62h-6.365v-.851h6.791a.426.426,0,0,1,.426.426Z" transform="translate(-519.295 -360.769)" fill="#1b1b1b"/>
            </g>
            <g id="Group_17243" data-name="Group 17243" transform="translate(9.447)">
              <path id="Path_33738" data-name="Path 33738" d="M486.245,366.56h-.851v-5.366a.426.426,0,0,1,.426-.426h6.791a.426.426,0,0,1,.426.426v5.361h-.852V361.62h-5.939Z" transform="translate(-485.394 -360.769)" fill="#1b1b1b"/>
            </g>
            <g id="Group_17244" data-name="Group 17244" transform="translate(18.288 22.517)">
              <rect id="Rectangle_4890" data-name="Rectangle 4890" width="4.201" height="0.851" fill="#1b1b1b"/>
            </g>
            <g id="Group_17245" data-name="Group 17245" transform="translate(29.105 9.361)">
              <rect id="Rectangle_4891" data-name="Rectangle 4891" width="0.851" height="9.935" fill="#1b1b1b"/>
            </g>
            <g id="Group_17246" data-name="Group 17246" transform="translate(3.729 9.361)">
              <rect id="Rectangle_4892" data-name="Rectangle 4892" width="0.851" height="9.438" fill="#1b1b1b"/>
            </g>
            <g id="Group_17247" data-name="Group 17247" transform="translate(16.238 5.787)">
              <rect id="Rectangle_4893" data-name="Rectangle 4893" width="0.851" height="13.012" fill="#1b1b1b"/>
            </g>
            <g id="Group_17248" data-name="Group 17248" transform="translate(0 5.361)">
              <path id="Path_33739" data-name="Path 33739" d="M473.8,390.379H461.111a.426.426,0,0,1-.294-.118l-3.2-3.049-3.2,3.049a.426.426,0,0,1-.294.118H441.439a.426.426,0,0,1-.3-.731l3.666-3.568a.425.425,0,0,1,.3-.121l24.946-.006a.426.426,0,0,1,.294.118l3.748,3.574a.426.426,0,0,1-.294.734Zm-12.519-.851h11.455l-2.855-2.723-11.452,0Zm-18.794,0h11.47l2.852-2.72-11.531,0Z" transform="translate(-441.013 -385.953)" fill="#1b1b1b"/>
            </g>
          </g>
          <g id="Group_17250" data-name="Group 17250" transform="translate(0 68.319)">
            <rect id="Rectangle_4894" data-name="Rectangle 4894" width="10.803" height="0.851" fill="#1b1b1b"/>
          </g>
          <g id="Group_17256" data-name="Group 17256" transform="translate(74.442 39.176)">
            <g id="Group_17251" data-name="Group 17251" transform="translate(4.996 18.425)">
              <path id="Path_33740" data-name="Path 33740" d="M567.041,540.37a2.394,2.394,0,0,1-.932-4.6l.332.784a1.542,1.542,0,1,0,1.18-.008l.321-.789a2.393,2.393,0,0,1-.9,4.611Z" transform="translate(-564.648 -535.759)" fill="#1b1b1b"/>
            </g>
            <g id="Group_17255" data-name="Group 17255">
              <g id="Group_17252" data-name="Group 17252">
                <path id="Path_33741" data-name="Path 33741" d="M548.568,469.181a.426.426,0,0,1-.318-.142c-.289-.324-7.071-7.977-7.071-12.446a7.389,7.389,0,1,1,14.778,0c0,4.462-6.782,12.122-7.071,12.446A.426.426,0,0,1,548.568,469.181Zm0-19.126a6.323,6.323,0,0,0-6.538,6.538c0,3.624,5.187,9.931,6.537,11.512,1.35-1.582,6.538-7.894,6.538-11.512A6.323,6.323,0,0,0,548.568,450.056Z" transform="translate(-541.179 -449.204)" fill="#1b1b1b"/>
              </g>
              <g id="Group_17253" data-name="Group 17253" transform="translate(4.364 4.457)">
                <path id="Path_33742" data-name="Path 33742" d="M564.7,476.19a3.025,3.025,0,1,1,3.025-3.026A3.029,3.029,0,0,1,564.7,476.19Zm0-5.2a2.174,2.174,0,1,0,2.174,2.174A2.176,2.176,0,0,0,564.7,470.991Z" transform="translate(-561.678 -470.139)" fill="#1b1b1b"/>
              </g>
              <g id="Group_17254" data-name="Group 17254">
                <path id="Path_33743" data-name="Path 33743" d="M548.568,469.181a.426.426,0,0,1-.318-.142c-.289-.324-7.071-7.977-7.071-12.446a7.389,7.389,0,1,1,14.778,0c0,4.462-6.782,12.122-7.071,12.446A.426.426,0,0,1,548.568,469.181Zm0-19.126a6.323,6.323,0,0,0-6.538,6.538c0,3.624,5.187,9.931,6.537,11.512,1.35-1.582,6.538-7.894,6.538-11.512A6.323,6.323,0,0,0,548.568,450.056Z" transform="translate(-541.179 -449.204)" fill="#1b1b1b"/>
              </g>
            </g>
          </g>
        </g>
      </g>
      <g id="Icon" transform="translate(8.379 38.453)">
        <g id="Group_17283" data-name="Group 17283" transform="translate(0 0)">
          <g id="Group_17277" data-name="Group 17277">
            <g id="Group_17258" data-name="Group 17258" transform="translate(2.37 5.188)">
              <path id="Path_33744" data-name="Path 33744" d="M256.659,470.183a6.791,6.791,0,0,0-5.73,2.971c-.839,1.4-8.959,14.338-8.959,14.338v8.333l22.315.081V470.183Zm3.225,14.066H247.848c2.285-3.859,5.244-8.624,5.744-9.463a3.987,3.987,0,0,1,3.265-1.577h3.027Z" transform="translate(-241.97 -470.183)" fill="#bc293e"/>
            </g>
            <g id="Group_17259" data-name="Group 17259" transform="translate(9.446 29.276)">
              <circle id="Ellipse_1154" data-name="Ellipse 1154" cx="5.196" cy="5.196" r="5.196" transform="translate(0 10.258) rotate(-80.783)" fill="#bc293e"/>
            </g>
            <g id="Group_17260" data-name="Group 17260" transform="translate(46.422 29.276)">
              <circle id="Ellipse_1155" data-name="Ellipse 1155" cx="5.196" cy="5.196" r="5.196" transform="translate(0 10.258) rotate(-80.783)" fill="#bc293e"/>
            </g>
            <g id="Group_17261" data-name="Group 17261" transform="translate(20.646 35.199)">
              <rect id="Rectangle_4895" data-name="Rectangle 4895" width="26.579" height="1.064" fill="#5c5c70"/>
            </g>
            <g id="Group_17262" data-name="Group 17262" transform="translate(9.679 29.509)">
              <path id="Path_33745" data-name="Path 33745" d="M282.034,595.889a5.728,5.728,0,1,1,5.728-5.728A5.735,5.735,0,0,1,282.034,595.889Zm0-10.392a4.664,4.664,0,1,0,4.664,4.664A4.669,4.669,0,0,0,282.034,585.5Z" transform="translate(-276.306 -584.433)" fill="#5c5c70"/>
            </g>
            <g id="Group_17263" data-name="Group 17263" transform="translate(46.693 29.453)">
              <path id="Path_33746" data-name="Path 33746" d="M455.745,595.288a5.561,5.561,0,1,1,5.561-5.561A5.567,5.567,0,0,1,455.745,595.288Zm0-10.057a4.5,4.5,0,1,0,4.5,4.5A4.5,4.5,0,0,0,455.745,585.231Z" transform="translate(-450.184 -584.167)" fill="#5c5c70"/>
            </g>
            <g id="Group_17264" data-name="Group 17264">
              <path id="Path_33747" data-name="Path 33747" d="M296.022,481.355h-7.9v-1.064h7.37v-3.246h-1.623a.532.532,0,0,1-.532-.532V446.874H256.322l.005,4.5a.532.532,0,0,1-.532.533h-7.722a6.241,6.241,0,0,0-5.22,2.657c-.787,1.306-7.9,12.521-8.8,13.94v8.013a.532.532,0,0,1-.532.532H231.9v3.246h9.525v1.064H231.37a.532.532,0,0,1-.532-.532v-4.31a.532.532,0,0,1,.532-.532h1.623v-7.635a.532.532,0,0,1,.083-.285c.08-.127,8.049-12.7,8.866-14.052a7.337,7.337,0,0,1,6.131-3.171h7.189l0-4.5a.532.532,0,0,1,.532-.533h38.078a.532.532,0,0,1,.532.532v29.639h1.623a.532.532,0,0,1,.532.532v4.31A.532.532,0,0,1,296.022,481.355Z" transform="translate(-230.838 -445.81)" fill="#5c5c70"/>
            </g>
            <g id="Group_17265" data-name="Group 17265" transform="translate(7.976 7.902)">
              <path id="Path_33748" data-name="Path 33748" d="M269.223,494.509l-.916-.542c1.63-2.753,3.509-5.835,4.632-7.676.452-.742.782-1.284.926-1.524a4.492,4.492,0,0,1,3.722-1.836l2.8.01,0,1.064-2.8-.01a3.481,3.481,0,0,0-2.807,1.319c-.143.24-.476.785-.93,1.531C272.726,488.684,270.85,491.763,269.223,494.509Z" transform="translate(-268.307 -482.931)" fill="#5c5c70"/>
            </g>
            <g id="Group_17266" data-name="Group 17266" transform="translate(18.491 22.269)">
              <rect id="Rectangle_4896" data-name="Rectangle 4896" width="2.155" height="1.064" fill="#fff"/>
            </g>
            <g id="Group_17267" data-name="Group 17267" transform="translate(24.424 4.842)">
              <rect id="Rectangle_4897" data-name="Rectangle 4897" width="1.064" height="25.861" fill="#5c5c70"/>
            </g>
            <g id="Group_17268" data-name="Group 17268" transform="translate(17.773 24.424)">
              <path id="Path_33749" data-name="Path 33749" d="M338.527,567.356h-24.2v-1.064H338.31l5.719-5.6a.532.532,0,0,1,.372-.152h15.183v1.064H344.619l-5.72,5.6A.532.532,0,0,1,338.527,567.356Z" transform="translate(-314.328 -560.545)" fill="#5c5c70"/>
            </g>
            <g id="Group_17269" data-name="Group 17269" transform="translate(4.843 5.561)">
              <path id="Path_33750" data-name="Path 33750" d="M268.672,486.113H253.587v-1.064H268.14V471.932H269.2v13.649A.532.532,0,0,1,268.672,486.113Z" transform="translate(-253.587 -471.932)" fill="#5c5c70"/>
            </g>
            <g id="Group_17270" data-name="Group 17270" transform="translate(2.687 30.171)">
              <rect id="Rectangle_4898" data-name="Rectangle 4898" width="10.057" height="1.064" fill="#5c5c70"/>
            </g>
            <g id="Group_17271" data-name="Group 17271" transform="translate(14.252 34.082)">
              <path id="Path_33751" data-name="Path 33751" d="M300.1,607.071a1.155,1.155,0,1,1-1.155-1.155A1.155,1.155,0,0,1,300.1,607.071Z" transform="translate(-297.789 -605.916)" fill="#fff"/>
            </g>
            <g id="Group_17272" data-name="Group 17272" transform="translate(51.229 34.082)">
              <path id="Path_33752" data-name="Path 33752" d="M473.8,607.071a1.155,1.155,0,1,1-1.155-1.155A1.155,1.155,0,0,1,473.8,607.071Z" transform="translate(-471.49 -605.916)" fill="#fff"/>
            </g>
            <g id="Group_17273" data-name="Group 17273" transform="translate(60.394 30.171)">
              <rect id="Rectangle_4899" data-name="Rectangle 4899" width="2.635" height="1.064" fill="#5c5c70"/>
            </g>
            <g id="Group_17274" data-name="Group 17274" transform="translate(42.197 12.212)">
              <rect id="Rectangle_4900" data-name="Rectangle 4900" width="2.155" height="1.064" fill="#5c5c70"/>
            </g>
            <g id="Group_17275" data-name="Group 17275" transform="translate(37.887 12.212)">
              <rect id="Rectangle_4901" data-name="Rectangle 4901" width="2.155" height="1.064" fill="#5c5c70"/>
            </g>
            <g id="Group_17276" data-name="Group 17276" transform="translate(46.507 12.212)">
              <rect id="Rectangle_4902" data-name="Rectangle 4902" width="2.155" height="1.064" fill="#5c5c70"/>
            </g>
          </g>
          <g id="Group_17282" data-name="Group 17282" transform="translate(65.011 26.27)">
            <g id="Group_17278" data-name="Group 17278" transform="translate(0 8.15)">
              <rect id="Rectangle_4903" data-name="Rectangle 4903" width="9.236" height="1.064" fill="#5c5c70"/>
            </g>
            <g id="Group_17279" data-name="Group 17279" transform="translate(0.241 3.942)">
              <rect id="Rectangle_4904" data-name="Rectangle 4904" width="3.092" height="1.064" fill="#5c5c70"/>
            </g>
            <g id="Group_17280" data-name="Group 17280" transform="translate(4.377 3.942)">
              <rect id="Rectangle_4905" data-name="Rectangle 4905" width="1.54" height="1.064" fill="#5c5c70"/>
            </g>
            <g id="Group_17281" data-name="Group 17281" transform="translate(0.241)">
              <rect id="Rectangle_4906" data-name="Rectangle 4906" width="1.807" height="1.064" fill="#5c5c70"/>
            </g>
          </g>
        </g>
      </g>
    </g>
  </g>
</svg>
